Lab 4B
…
view(report_09_13_2020)

Counts of confirmed cases & deaths by country (03.11.20)

report_03_11_2020 %>% 
  group_by(Country_Region) %>% 
  summarize(Confirmed_Cases = sum(Confirmed), Total_Deaths = sum(Deaths)) 

## `summarise()` ungrouping output (override with `.groups` argument)

## # A tibble: 116 x 3
##    Country_Region Confirmed_Cases Total_Deaths
##    <chr>                    <dbl>        <dbl>
##  1 Afghanistan                  7            0
##  2 Albania                     12            1
##  3 Algeria                     20            0
##  4 Andorra                      1            0
##  5 Argentina                   19            1
##  6 Armenia                      1            0
##  7 Australia                  128            3
##  8 Austria                    246            0
##  9 Azerbaijan                  11            0
## 10 Bahrain                    195            0
## # ... with 106 more rows

Counts of confirmed cases & deaths by country (09.13.20)

report_09_13_2020 %>% 
  group_by(Country_Region) %>% 
  summarize(Confirmed_Cases = sum(Confirmed), Total_Deaths = sum(Deaths)) 

## `summarise()` ungrouping output (override with `.groups` argument)

## # A tibble: 188 x 3
##    Country_Region      Confirmed_Cases Total_Deaths
##    <chr>                         <dbl>        <dbl>
##  1 Afghanistan                   38716         1420
##  2 Albania                       11353          334
##  3 Algeria                       48254         1612
##  4 Andorra                        1344           53
##  5 Angola                         3388          134
##  6 Antigua and Barbuda              95            3
##  7 Argentina                    555537        11352
##  8 Armenia                       45862          916
##  9 Australia                     26692          816
## 10 Austria                       33159          756
## # ... with 178 more rows

Counts of confirmed cases by state (03.11.20)

report_03_11_2020 %>% 
  filter(Country_Region == "US") %>%
  group_by(Province_State) %>% 
  summarize(Confirmed_Cases = sum(Confirmed))

## `summarise()` ungrouping output (override with `.groups` argument)

## # A tibble: 52 x 2
##    Province_State       Confirmed_Cases
##    <chr>                          <dbl>
##  1 Alaska                             0
##  2 Arizona                            9
##  3 Arkansas                           1
##  4 California                       177
##  5 Colorado                          34
##  6 Connecticut                        3
##  7 Delaware                           1
##  8 Diamond Princess                  46
##  9 District of Columbia              10
## 10 Florida                           28
## # ... with 42 more rows

Counts of confirmed cases by state (09.13.20)

report_09_13_2020 %>% 
  filter(Country_Region == "US") %>%
  group_by(Province_State) %>% 
  summarize(Confirmed_Cases = sum(Confirmed))

## `summarise()` ungrouping output (override with `.groups` argument)

## # A tibble: 58 x 2
##    Province_State       Confirmed_Cases
##    <chr>                          <dbl>
##  1 Alabama                       138755
##  2 Alaska                          6268
##  3 Arizona                       208512
##  4 Arkansas                       70219
##  5 California                    761728
##  6 Colorado                       61293
##  7 Connecticut                    54326
##  8 Delaware                       18849
##  9 Diamond Princess                  49
## 10 District of Columbia           14592
## # ... with 48 more rows
…
